{
  "director": "MainMenu",
  "background": "#000000",
  "showMouse": true,
  "layout": "default",
  "snapToGrid": {
    "enabled": false,
    "xSpacing": 50,
    "ySpacing": 50,
    "xOffset": 0,
    "yOffset": 0,
    "xCloseness": 10,
    "yCloseness": 10
  },
  "snapToGuides": {
    "enabled": true,
    "closeness": 5,
    "x": [
      
    ],
    "y": [
      
    ]
  },
  "snapToOthers": {
    "enabled": false,
    "xCloseness": 10,
    "yCloseness": 10
  },
  "snapRotation": {
    "enabled": true,
    "step": 15,
    "closeness": 15
  },
  "include": [
    
  ],
  "stages": [
    {
      "name": "glass",
      "actors": [
        {
          "costume": "sceneButton",
          "name": "tutorial",
          "x": 720,
          "y": 680,
          "text": "Tutorial",
          "autoPositionAlignmentX": 0.5,
          "attributes": [
            {
              "name": "scene",
              "value": "tutorial/1"
            },
            {
              "name": "showInSeconds",
              "value": "0.3"
            },
            {
              "name": "duration",
              "value": "0.6"
            }
          ]
        },
        {
          "costume": "quit",
          "x": 113,
          "y": 57,
          "text": "Quit",
          "textColor": "#ffcce6ff"
        },
        {
          "costume": "largeInfo",
          "name": "title",
          "x": 720,
          "y": 770,
          "text": "Higgs Anomaly",
          "textOutlineColor": "#00000000",
          "autoPositionAlignmentX": 0.5,
          "autoPositionAlignmentY": 1,
          "attributes": [
            {
              "name": "event",
              "value": ""
            },
            {
              "name": "showInSeconds",
              "value": "0"
            },
            {
              "name": "hideAfterSeconds",
              "value": "0"
            },
            {
              "name": "duration",
              "value": "1"
            }
          ]
        },
        {
          "costume": "sceneButton",
          "x": 1330,
          "y": 56,
          "text": "Options",
          "autoPositionAlignmentX": 1,
          "attributes": [
            {
              "name": "showInSeconds",
              "value": "0"
            },
            {
              "name": "duration",
              "value": "0"
            },
            {
              "name": "scene",
              "value": "options"
            }
          ]
        },
        {
          "costume": "background1",
          "name": "background",
          "x": -408,
          "y": 1177,
          "zOrder": -1,
          "isLocked": true,
          "autoPositionAlignmentX": 0.5,
          "autoPositionAlignmentY": 0.5,
          "scaleX": 2.383366,
          "scaleY": 2.0000005
        },
        {
          "costume": "chapterButton",
          "x": 950,
          "y": 530,
          "text": "Higgs Anomaly Epiosode I",
          "autoPositionAlignmentX": 0.5,
          "attributes": [
            {
              "name": "chapter",
              "value": "1"
            },
            {
              "name": "showInSeconds",
              "value": "0.6"
            },
            {
              "name": "duration",
              "value": "0.6"
            }
          ]
        },
        {
          "costume": "chapterButton",
          "x": 955.76,
          "y": 370,
          "text": "The Higgs Strikes Back",
          "autoPositionAlignmentX": 0.5,
          "attributes": [
            {
              "name": "showInSeconds",
              "value": "0.9"
            },
            {
              "name": "duration",
              "value": "0.6"
            },
            {
              "name": "chapter",
              "value": "2"
            }
          ]
        },
        {
          "costume": "chapterButton",
          "x": 950,
          "y": 210,
          "text": "Return of the Lepton",
          "autoPositionAlignmentX": 0.5,
          "attributes": [
            {
              "name": "chapter",
              "value": "3"
            },
            {
              "name": "showInSeconds",
              "value": "1.2"
            },
            {
              "name": "duration",
              "value": "0.6"
            }
          ]
        },
        {
          "costume": "instalmentButton",
          "name": "item0",
          "x": 400,
          "y": 530,
          "text": "Normal Gravity",
          "autoPositionAlignmentX": 0.5,
          "attributes": [
            {
              "name": "instalment",
              "value": "1"
            }
          ]
        },
        {
          "costume": "instalmentButton",
          "name": "item1",
          "x": 400,
          "y": 460,
          "text": "High G",
          "autoPositionAlignmentX": 0.5,
          "attributes": [
            {
              "name": "instalment",
              "value": "2"
            }
          ]
        },
        {
          "costume": "instalmentButton",
          "name": "item2",
          "x": 400,
          "y": 390,
          "text": "Phase Shift",
          "autoPositionAlignmentX": 0.5,
          "attributes": [
            {
              "name": "instalment",
              "value": "3"
            }
          ]
        },
        {
          "costume": "instalmentButton",
          "name": "item3",
          "x": 400,
          "y": 330,
          "text": "Inversion",
          "autoPositionAlignmentX": 0.5,
          "attributes": [
            {
              "name": "instalment",
              "value": "4"
            }
          ]
        },
        {
          "costume": "instalmentButton",
          "name": "item4",
          "x": 400,
          "y": 270,
          "text": "Total Inversion",
          "autoPositionAlignmentX": 0.5,
          "attributes": [
            {
              "name": "instalment",
              "value": "5"
            }
          ]
        },
        {
          "costume": "instalmentButton",
          "name": "item5",
          "x": 400,
          "y": 210,
          "text": "Mega Phase Shift",
          "autoPositionAlignmentX": 0.5,
          "attributes": [
            {
              "name": "instalment",
              "value": "6"
            }
          ]
        }
      ]
    }
  ]
}