{
  "director": "OptionsDirector",
  "background": "#000000",
  "showMouse": true,
  "layout": "default",
  "snapToGrid": {
    "enabled": false,
    "xSpacing": 50,
    "ySpacing": 50,
    "xOffset": 0,
    "yOffset": 0,
    "xCloseness": 10,
    "yCloseness": 10
  },
  "snapToGuides": {
    "enabled": true,
    "closeness": 5,
    "x": [
      
    ],
    "y": [
      
    ]
  },
  "snapToOthers": {
    "enabled": true,
    "xCloseness": 10,
    "yCloseness": 10
  },
  "snapRotation": {
    "enabled": false,
    "step": 15,
    "closeness": 15
  },
  "include": [
    
  ],
  "stages": [
    {
      "name": "glass",
      "actors": [
        {
          "costume": "largeInfo",
          "x": 109.5,
          "y": 476,
          "text": "Options",
          "textColor": "#cccc33ff",
          "textOutlineColor": "#00000000",
          "autoPositionAlignmentY": 0.5,
          "direction": 90,
          "attributes": [
            {
              "name": "event",
              "value": ""
            },
            {
              "name": "showInSeconds",
              "value": "0"
            },
            {
              "name": "hideAfterSeconds",
              "value": "0"
            },
            {
              "name": "duration",
              "value": "0"
            }
          ]
        },
        {
          "costume": "sceneButton",
          "x": 166,
          "y": 32,
          "text": "Back to Menu",
          "attributes": [
            {
              "name": "showInSeconds",
              "value": "0"
            },
            {
              "name": "duration",
              "value": "0"
            },
            {
              "name": "scene",
              "value": "mainMenu"
            }
          ]
        },
        {
          "costume": "option",
          "name": "drag",
          "x": 735,
          "y": 730,
          "text": "?",
          "autoPositionAlignmentX": 0.5,
          "autoPositionAlignmentY": 0.5,
          "attributes": [
            {
              "name": "showInSeconds",
              "value": "0.1"
            },
            {
              "name": "duration",
              "value": "1"
            }
          ]
        },
        {
          "costume": "info",
          "x": 715,
          "y": 670,
          "zOrder": 460,
          "text": "Rod Length :",
          "textHAlignment": "RIGHT",
          "textVAlignment": "CENTER",
          "autoPositionAlignmentX": 0.5,
          "autoPositionAlignmentY": 0.5,
          "attributes": [
            {
              "name": "event",
              "value": ""
            },
            {
              "name": "showInSeconds",
              "value": "0.2"
            },
            {
              "name": "hideAfterSeconds",
              "value": "0"
            },
            {
              "name": "duration",
              "value": "1"
            }
          ]
        },
        {
          "costume": "option",
          "name": "rodLength",
          "x": 735,
          "y": 670,
          "text": "?",
          "autoPositionAlignmentX": 0.5,
          "autoPositionAlignmentY": 0.5,
          "attributes": [
            {
              "name": "showInSeconds",
              "value": "0.2"
            },
            {
              "name": "duration",
              "value": "1"
            }
          ]
        },
        {
          "costume": "messageButton",
          "x": 1266.5,
          "y": 32,
          "text": "Reset Options",
          "autoPositionAlignmentX": 1,
          "attributes": [
            {
              "name": "message",
              "value": "resetOptions"
            }
          ]
        },
        {
          "costume": "info",
          "x": 715.5,
          "y": 610,
          "text": "When Gold is Destroyed :",
          "textHAlignment": "RIGHT",
          "textVAlignment": "CENTER",
          "autoPositionAlignmentX": 0.5,
          "autoPositionAlignmentY": 0.5,
          "attributes": [
            {
              "name": "event",
              "value": ""
            },
            {
              "name": "showInSeconds",
              "value": "0.3"
            },
            {
              "name": "hideAfterSeconds",
              "value": "0"
            },
            {
              "name": "duration",
              "value": "1"
            }
          ]
        },
        {
          "costume": "option",
          "name": "isGoldVital",
          "x": 735,
          "y": 610,
          "text": "?",
          "autoPositionAlignmentX": 0.5,
          "autoPositionAlignmentY": 0.5,
          "attributes": [
            {
              "name": "showInSeconds",
              "value": "0.3"
            },
            {
              "name": "duration",
              "value": "1"
            }
          ]
        },
        {
          "costume": "info",
          "x": 715,
          "y": 550,
          "text": "When Water is Destroyed :",
          "textHAlignment": "RIGHT",
          "textVAlignment": "CENTER",
          "autoPositionAlignmentX": 0.5,
          "autoPositionAlignmentY": 0.5,
          "attributes": [
            {
              "name": "event",
              "value": ""
            },
            {
              "name": "showInSeconds",
              "value": "0.4"
            },
            {
              "name": "hideAfterSeconds",
              "value": "0"
            },
            {
              "name": "duration",
              "value": "1"
            }
          ]
        },
        {
          "costume": "option",
          "name": "isWaterVital",
          "x": 735,
          "y": 550,
          "text": "?",
          "autoPositionAlignmentX": 0.5,
          "autoPositionAlignmentY": 0.5,
          "attributes": [
            {
              "name": "showInSeconds",
              "value": "0.4"
            },
            {
              "name": "duration",
              "value": "1"
            }
          ]
        },
        {
          "costume": "info",
          "x": 715,
          "y": 490,
          "text": "Magnetic Strength :",
          "textHAlignment": "RIGHT",
          "textVAlignment": "CENTER",
          "autoPositionAlignmentX": 0.5,
          "autoPositionAlignmentY": 0.5,
          "attributes": [
            {
              "name": "event",
              "value": ""
            },
            {
              "name": "showInSeconds",
              "value": "0.5"
            },
            {
              "name": "hideAfterSeconds",
              "value": "0"
            },
            {
              "name": "duration",
              "value": "1"
            }
          ]
        },
        {
          "costume": "option",
          "name": "magneticStrength",
          "x": 735,
          "y": 490,
          "text": "?",
          "autoPositionAlignmentX": 0.5,
          "autoPositionAlignmentY": 0.5,
          "attributes": [
            {
              "name": "showInSeconds",
              "value": "0.5"
            },
            {
              "name": "duration",
              "value": "1"
            }
          ]
        },
        {
          "costume": "info",
          "x": 715,
          "y": 730,
          "text": "Drag :",
          "textHAlignment": "RIGHT",
          "textVAlignment": "CENTER",
          "autoPositionAlignmentX": 0.5,
          "autoPositionAlignmentY": 0.5,
          "attributes": [
            {
              "name": "event",
              "value": ""
            },
            {
              "name": "showInSeconds",
              "value": "0.1"
            },
            {
              "name": "hideAfterSeconds",
              "value": "0"
            },
            {
              "name": "duration",
              "value": "1"
            }
          ]
        },
        {
          "costume": "background1",
          "x": -200,
          "y": 1200,
          "zOrder": -1,
          "isLocked": true,
          "autoPositionAlignmentX": 0.5,
          "scaleX": 2,
          "scaleY": 2
        },
        {
          "costume": "info",
          "x": 715,
          "y": 150,
          "text": "Fullscreen (Restart Required) :",
          "textHAlignment": "RIGHT",
          "textVAlignment": "CENTER",
          "autoPositionAlignmentX": 0.5,
          "autoPositionAlignmentY": 0.5,
          "attributes": [
            {
              "name": "event",
              "value": ""
            },
            {
              "name": "showInSeconds",
              "value": "1"
            },
            {
              "name": "hideAfterSeconds",
              "value": "0"
            },
            {
              "name": "duration",
              "value": "1"
            }
          ]
        },
        {
          "costume": "option",
          "name": "isFullScreen",
          "x": 734,
          "y": 150,
          "text": "?",
          "autoPositionAlignmentX": 0.5,
          "autoPositionAlignmentY": 0.5,
          "attributes": [
            {
              "name": "showInSeconds",
              "value": "1"
            },
            {
              "name": "duration",
              "value": "1"
            }
          ]
        },
        {
          "costume": "info",
          "x": 715,
          "y": 430,
          "text": "More Acid :",
          "textHAlignment": "RIGHT",
          "textVAlignment": "CENTER",
          "autoPositionAlignmentX": 0.5,
          "attributes": [
            {
              "name": "event",
              "value": ""
            },
            {
              "name": "showInSeconds",
              "value": "0.6"
            },
            {
              "name": "hideAfterSeconds",
              "value": "0"
            },
            {
              "name": "duration",
              "value": "1"
            }
          ]
        },
        {
          "costume": "option",
          "name": "moreAcid",
          "x": 735,
          "y": 430,
          "text": "?",
          "autoPositionAlignmentX": 0.5,
          "attributes": [
            {
              "name": "showInSeconds",
              "value": "0.6"
            },
            {
              "name": "duration",
              "value": "1"
            }
          ]
        },
        {
          "costume": "info",
          "x": 715,
          "y": 370,
          "text": "Faulty Cargo Gate :",
          "textHAlignment": "RIGHT",
          "textVAlignment": "CENTER",
          "autoPositionAlignmentX": 0.5,
          "attributes": [
            {
              "name": "event",
              "value": ""
            },
            {
              "name": "showInSeconds",
              "value": "0.7"
            },
            {
              "name": "hideAfterSeconds",
              "value": "0"
            },
            {
              "name": "duration",
              "value": "1"
            }
          ]
        },
        {
          "costume": "option",
          "name": "faultyGate",
          "x": 735,
          "y": 370,
          "text": "?",
          "autoPositionAlignmentX": 0.5,
          "attributes": [
            {
              "name": "showInSeconds",
              "value": "0.7"
            },
            {
              "name": "duration",
              "value": "1"
            }
          ]
        },
        {
          "costume": "info",
          "x": 715,
          "y": 310,
          "text": "Nausia :",
          "textHAlignment": "RIGHT",
          "textVAlignment": "CENTER",
          "autoPositionAlignmentX": 0.5,
          "attributes": [
            {
              "name": "event",
              "value": ""
            },
            {
              "name": "showInSeconds",
              "value": "0.8"
            },
            {
              "name": "hideAfterSeconds",
              "value": "0"
            },
            {
              "name": "duration",
              "value": "1"
            }
          ]
        },
        {
          "costume": "option",
          "name": "nausia",
          "x": 735,
          "y": 310,
          "text": "?",
          "autoPositionAlignmentX": 0.5,
          "attributes": [
            {
              "name": "showInSeconds",
              "value": "0.8"
            },
            {
              "name": "duration",
              "value": "1"
            }
          ]
        },
        {
          "costume": "info",
          "x": 715,
          "y": 250,
          "text": "Danger Zone :",
          "textHAlignment": "RIGHT",
          "textVAlignment": "CENTER",
          "autoPositionAlignmentX": 0.5,
          "attributes": [
            {
              "name": "event",
              "value": ""
            },
            {
              "name": "showInSeconds",
              "value": "0.9"
            },
            {
              "name": "hideAfterSeconds",
              "value": "0"
            },
            {
              "name": "duration",
              "value": "1"
            }
          ]
        },
        {
          "costume": "option",
          "name": "dangerZone",
          "x": 728.5,
          "y": 250,
          "text": "?",
          "autoPositionAlignmentX": 0.5,
          "attributes": [
            {
              "name": "showInSeconds",
              "value": "0.9"
            },
            {
              "name": "duration",
              "value": "1"
            }
          ]
        },
        {
          "costume": "info",
          "x": 715,
          "y": 790,
          "text": "Difficulty :",
          "textHAlignment": "RIGHT",
          "textVAlignment": "CENTER",
          "autoPositionAlignmentX": 0.5,
          "autoPositionAlignmentY": 0.5,
          "attributes": [
            {
              "name": "event",
              "value": ""
            },
            {
              "name": "showInSeconds",
              "value": "0.1"
            },
            {
              "name": "hideAfterSeconds",
              "value": "0"
            },
            {
              "name": "duration",
              "value": "1"
            }
          ]
        },
        {
          "costume": "option",
          "name": "hardness",
          "x": 735,
          "y": 790,
          "text": "?",
          "autoPositionAlignmentX": 0.5,
          "autoPositionAlignmentY": 0.5,
          "attributes": [
            {
              "name": "showInSeconds",
              "value": "0"
            },
            {
              "name": "duration",
              "value": "1"
            }
          ]
        }
      ]
    }
  ]
}