{
  "director": "Play",
  "directorAttributes": [
    {
      "name": "gravity",
      "value": "0.05"
    },
    {
      "name": "waterRequired",
      "value": "2"
    }
  ],
  "background": "#000000",
  "showMouse": false,
  "layout": "default",
  "snapToGrid": {
    "enabled": false,
    "xSpacing": 50,
    "ySpacing": 50,
    "xOffset": 0,
    "yOffset": 0,
    "xCloseness": 10,
    "yCloseness": 10
  },
  "snapToGuides": {
    "enabled": true,
    "closeness": 5,
    "x": [
      
    ],
    "y": [
      
    ]
  },
  "snapToOthers": {
    "enabled": true,
    "xCloseness": 10,
    "yCloseness": 10
  },
  "snapRotation": {
    "enabled": true,
    "step": 15,
    "closeness": 15
  },
  "include": [
    "info"
  ],
  "stages": [
    {
      "name": "background",
      "actors": [
        {
          "costume": "background1",
          "x": 128.49976,
          "y": 434.69376,
          "isLocked": true,
          "scaleX": 1.4577854,
          "scaleY": 1.8003926
        },
        {
          "costume": "stars",
          "x": 794.80615,
          "y": 163.15196,
          "zOrder": -10,
          "isLocked": true,
          "scaleX": 1.5564965,
          "scaleY": 1.3337133
        }
      ]
    },
    {
      "name": "dynamic",
      "actors": [
        {
          "costume": "ship1",
          "x": 843,
          "y": -119.5,
          "direction": 90
        },
        {
          "costume": "dome",
          "x": 851.21136,
          "y": 431,
          "isLocked": true,
          "scaleX": 2.6619823,
          "scaleY": 3.573398,
          "attributes": [
            {
              "name": "rainPeriod",
              "value": "0"
            }
          ]
        },
        {
          "costume": "screenshot",
          "x": 487.5,
          "y": -168.5,
          "text": "screenshot",
          "attributes": [
            {
              "name": "delayInTicks",
              "value": "10"
            },
            {
              "name": "filename",
              "value": "screenshot.png"
            },
            {
              "name": "overwrite",
              "value": "false"
            },
            {
              "name": "thumbnailWidth",
              "value": "0"
            }
          ]
        },
        {
          "costume": "screenshot",
          "x": 495,
          "y": -213,
          "text": "thumbnail",
          "attributes": [
            {
              "name": "delayInTicks",
              "value": "10"
            },
            {
              "name": "filename",
              "value": "thumbnail.png"
            },
            {
              "name": "overwrite",
              "value": "false"
            },
            {
              "name": "thumbnailWidth",
              "value": "160"
            }
          ]
        },
        {
          "costume": "lake",
          "x": 373.5,
          "y": -310.6399,
          "scaleX": 8.387755,
          "scaleY": 3.0699482
        },
        {
          "costume": "dripFactory",
          "x": 320,
          "y": 683.5,
          "attributes": [
            {
              "name": "fromSeconds",
              "value": "3"
            },
            {
              "name": "toSeconds",
              "value": "6"
            }
          ]
        },
        {
          "costume": "dripFactory",
          "x": 1111.5,
          "y": 459,
          "attributes": [
            {
              "name": "fromSeconds",
              "value": "3"
            },
            {
              "name": "toSeconds",
              "value": "6"
            }
          ]
        }
      ]
    },
    {
      "name": "rocks",
      "actors": [
        {
          "costume": "rock2",
          "x": 109.5,
          "y": 552,
          "direction": 29.999999999999996,
          "attributes": [
            {
              "name": "hardness",
              "value": "0"
            }
          ]
        },
        {
          "costume": "rock4",
          "x": 53.922768,
          "y": 438.52386,
          "direction": 270,
          "scaleX": 1.1953597,
          "scaleY": 1.4154965,
          "attributes": [
            {
              "name": "hardness",
              "value": "0"
            }
          ]
        },
        {
          "costume": "rock1",
          "x": 367,
          "y": 282,
          "color": "#ffffff80",
          "attributes": [
            {
              "name": "hardness",
              "value": "1"
            }
          ]
        },
        {
          "costume": "rock2",
          "x": 122.204025,
          "y": 226.35416,
          "direction": 345,
          "scaleX": 1.4354693,
          "scaleY": 1.2077448,
          "attributes": [
            {
              "name": "hardness",
              "value": "0"
            }
          ]
        },
        {
          "costume": "rock2",
          "x": 152.93,
          "y": -132.25581,
          "direction": 345,
          "scaleX": 1.5857332,
          "scaleY": 1.4518273,
          "attributes": [
            {
              "name": "hardness",
              "value": "0"
            }
          ]
        },
        {
          "costume": "rock1",
          "x": 235.5,
          "y": -187,
          "direction": 345,
          "attributes": [
            {
              "name": "hardness",
              "value": "0"
            }
          ]
        },
        {
          "costume": "rock2",
          "x": 51.10772,
          "y": -455.97675,
          "scaleX": 1.5081029,
          "scaleY": 1.2641196,
          "attributes": [
            {
              "name": "hardness",
              "value": "0"
            }
          ]
        },
        {
          "costume": "rock2",
          "x": 157,
          "y": -411.5,
          "attributes": [
            {
              "name": "hardness",
              "value": "0"
            }
          ]
        },
        {
          "costume": "rock3",
          "x": 191.75853,
          "y": -779.4925,
          "direction": 300,
          "scaleX": 1.4771473,
          "scaleY": 1.6319516,
          "attributes": [
            {
              "name": "hardness",
              "value": "0"
            }
          ]
        },
        {
          "costume": "rock2",
          "x": 1358,
          "y": -507,
          "direction": 330,
          "attributes": [
            {
              "name": "hardness",
              "value": "0"
            }
          ]
        },
        {
          "costume": "rock2",
          "x": 1449.5,
          "y": -270.5,
          "attributes": [
            {
              "name": "hardness",
              "value": "0"
            }
          ]
        },
        {
          "costume": "rock2",
          "x": 1453.5,
          "y": -30.5,
          "attributes": [
            {
              "name": "hardness",
              "value": "0"
            }
          ]
        },
        {
          "costume": "rock2",
          "x": 1448,
          "y": 204.5,
          "attributes": [
            {
              "name": "hardness",
              "value": "0"
            }
          ]
        },
        {
          "costume": "rock2",
          "x": 1410,
          "y": 412,
          "direction": 29.999999999999996,
          "attributes": [
            {
              "name": "hardness",
              "value": "0"
            }
          ]
        },
        {
          "costume": "rock1",
          "x": 202,
          "y": 279,
          "direction": 298.12751370338356,
          "attributes": [
            {
              "name": "hardness",
              "value": "0"
            }
          ]
        },
        {
          "costume": "rock3",
          "x": 393.5,
          "y": -928,
          "attributes": [
            {
              "name": "hardness",
              "value": "0"
            }
          ]
        },
        {
          "costume": "rock4",
          "x": 220,
          "y": 412,
          "attributes": [
            {
              "name": "hardness",
              "value": "0"
            }
          ]
        },
        {
          "costume": "bottomLeft",
          "x": -21,
          "y": -906
        },
        {
          "costume": "topRight",
          "x": 1556.5,
          "y": 1352.5
        },
        {
          "costume": "gate",
          "x": 1130,
          "y": -428
        },
        {
          "costume": "rock1",
          "x": 600.5,
          "y": -436.5,
          "attributes": [
            {
              "name": "hardness",
              "value": "0"
            }
          ]
        },
        {
          "costume": "rock4",
          "x": 444.5,
          "y": 448,
          "attributes": [
            {
              "name": "hardness",
              "value": "0"
            }
          ]
        },
        {
          "costume": "rock4",
          "x": 193,
          "y": 700.5,
          "direction": 26.274212154727437,
          "attributes": [
            {
              "name": "hardness",
              "value": "0"
            }
          ]
        },
        {
          "costume": "exitGate",
          "x": 291.5,
          "y": 518.5,
          "attributes": [
            {
              "name": "nextScene",
              "value": "chapter1/2"
            }
          ]
        },
        {
          "costume": "button",
          "x": 548.5,
          "y": 773.5,
          "attributes": [
            {
              "name": "doorName",
              "value": "door"
            }
          ]
        },
        {
          "costume": "door3",
          "x": 316.5,
          "y": 752,
          "direction": 300,
          "attributes": [
            {
              "name": "doorName",
              "value": "door"
            },
            {
              "name": "linear",
              "value": "190"
            },
            {
              "name": "degrees",
              "value": "0"
            },
            {
              "name": "duration",
              "value": "1"
            },
            {
              "name": "closeAfterSeconds",
              "value": "3"
            }
          ]
        },
        {
          "costume": "rock3",
          "x": 399.5,
          "y": 768.5,
          "attributes": [
            {
              "name": "hardness",
              "value": "0"
            }
          ]
        },
        {
          "costume": "rock1",
          "x": 221,
          "y": -670,
          "direction": 29.999999999999996,
          "attributes": [
            {
              "name": "hardness",
              "value": "0"
            }
          ]
        },
        {
          "costume": "rock2",
          "x": 565.5,
          "y": -792.5,
          "direction": 330,
          "attributes": [
            {
              "name": "hardness",
              "value": "0"
            }
          ]
        },
        {
          "costume": "rock2",
          "x": 34.89851,
          "y": -97.85976,
          "scaleX": 1.6285454,
          "scaleY": 1.5544611,
          "attributes": [
            {
              "name": "hardness",
              "value": "0"
            }
          ]
        },
        {
          "costume": "rock1",
          "x": -11.874193,
          "y": 262.39984,
          "scaleX": 1.2798619,
          "scaleY": 1.1481212,
          "attributes": [
            {
              "name": "hardness",
              "value": "0"
            }
          ]
        },
        {
          "costume": "rock2",
          "x": 1385.2699,
          "y": -728.61273,
          "direction": 326.02345596374323,
          "scaleX": 1.2698938,
          "scaleY": 1.293136,
          "attributes": [
            {
              "name": "hardness",
              "value": "0"
            }
          ]
        },
        {
          "costume": "rock2",
          "x": 1492.033,
          "y": -499.93686,
          "direction": 330,
          "scaleX": 1.3194004,
          "scaleY": 1.2333833,
          "attributes": [
            {
              "name": "hardness",
              "value": "0"
            }
          ]
        },
        {
          "costume": "rock2",
          "x": 1565.8523,
          "y": -181.06976,
          "scaleX": 1.344697,
          "scaleY": 1.2076412,
          "attributes": [
            {
              "name": "hardness",
              "value": "0"
            }
          ]
        },
        {
          "costume": "rock2",
          "x": 1558.4546,
          "y": 146.24419,
          "scaleX": 1.2727273,
          "scaleY": 1.1661129,
          "attributes": [
            {
              "name": "hardness",
              "value": "0"
            }
          ]
        },
        {
          "costume": "rock1",
          "x": 1521.2374,
          "y": 391.18182,
          "direction": 29.999999999999996,
          "scaleX": 1.3417267,
          "scaleY": 1.1262627,
          "attributes": [
            {
              "name": "hardness",
              "value": "0"
            }
          ]
        },
        {
          "costume": "rock2",
          "x": 1244.6344,
          "y": -530.4824,
          "direction": 90,
          "attributes": [
            {
              "name": "hardness",
              "value": "0"
            }
          ]
        },
        {
          "costume": "rock2",
          "x": 594.4344,
          "y": -648.1824,
          "attributes": [
            {
              "name": "hardness",
              "value": "0"
            }
          ]
        },
        {
          "costume": "rock2",
          "x": 679.4344,
          "y": -816.9824,
          "direction": 90,
          "attributes": [
            {
              "name": "hardness",
              "value": "0"
            }
          ]
        },
        {
          "costume": "rock2",
          "x": 1264.0344,
          "y": -623.2824,
          "direction": 47.35790597071647,
          "attributes": [
            {
              "name": "hardness",
              "value": "0"
            }
          ]
        },
        {
          "costume": "rock2",
          "x": 881.6792,
          "y": -834.25946,
          "direction": 90,
          "scaleX": 1.369639,
          "scaleY": 1.2338828,
          "attributes": [
            {
              "name": "hardness",
              "value": "0"
            }
          ]
        },
        {
          "costume": "rock1",
          "x": 704.0587,
          "y": -913.23926,
          "direction": 90,
          "scaleX": 1.3609288,
          "scaleY": 1.2470535,
          "attributes": [
            {
              "name": "hardness",
              "value": "0"
            }
          ]
        },
        {
          "costume": "rock1",
          "x": 1212.2798,
          "y": -928.222,
          "direction": 270,
          "scaleX": 1.2402878,
          "scaleY": 1.3676767,
          "attributes": [
            {
              "name": "hardness",
              "value": "0"
            }
          ]
        },
        {
          "costume": "goldFactory",
          "x": 931.8344,
          "y": -747.1824,
          "attributes": [
            {
              "name": "doorName",
              "value": "door"
            },
            {
              "name": "adjustBy",
              "value": "0.0x1.0"
            },
            {
              "name": "hardness",
              "value": "0"
            }
          ]
        },
        {
          "costume": "rock1",
          "x": 1482.6631,
          "y": -757.3833,
          "scaleX": 1.9685756,
          "scaleY": 1.5553939,
          "attributes": [
            {
              "name": "hardness",
              "value": "0"
            }
          ]
        },
        {
          "costume": "rock2",
          "x": 82.76455,
          "y": -780.73553,
          "scaleX": 1.9427273,
          "scaleY": 1.3615681,
          "attributes": [
            {
              "name": "hardness",
              "value": "0"
            }
          ]
        },
        {
          "costume": "rock3",
          "x": 92.665306,
          "y": 806.0187,
          "direction": 47.489552921999184,
          "scaleX": 1.2060454,
          "scaleY": 1.4617665,
          "attributes": [
            {
              "name": "hardness",
              "value": "0"
            }
          ]
        },
        {
          "costume": "rock3",
          "x": 227.064,
          "y": 856.46,
          "direction": 323.9017160328921,
          "attributes": [
            {
              "name": "hardness",
              "value": "0"
            }
          ]
        },
        {
          "costume": "goldFactory",
          "x": 223.8944,
          "y": 65.3624,
          "attributes": [
            {
              "name": "doorName",
              "value": "door"
            },
            {
              "name": "adjustBy",
              "value": "0.0x1.0"
            },
            {
              "name": "hardness",
              "value": "0"
            }
          ]
        },
        {
          "costume": "goldFactory",
          "x": 374.9792,
          "y": 850.3056,
          "attributes": [
            {
              "name": "doorName",
              "value": "door"
            },
            {
              "name": "adjustBy",
              "value": "0.0x1.0"
            },
            {
              "name": "hardness",
              "value": "0"
            }
          ]
        },
        {
          "costume": "rock4",
          "x": 1221,
          "y": 462,
          "color": "#ffffff88",
          "attributes": [
            {
              "name": "hardness",
              "value": "1"
            }
          ]
        },
        {
          "costume": "waterFactory",
          "x": 615,
          "y": -271,
          "attributes": [
            {
              "name": "doorName",
              "value": "door"
            },
            {
              "name": "adjustBy",
              "value": "0.0x1.0"
            }
          ]
        },
        {
          "costume": "goldFactory",
          "x": 1145,
          "y": -690,
          "color": "#ffffff88",
          "attributes": [
            {
              "name": "hardness",
              "value": "1"
            },
            {
              "name": "doorName",
              "value": "door"
            },
            {
              "name": "adjustBy",
              "value": "0.0x1.0"
            }
          ]
        },
        {
          "costume": "rock1",
          "x": 904.0587,
          "y": -913.23926,
          "direction": 90,
          "scaleX": 1.3609288,
          "scaleY": 1.2470535,
          "attributes": [
            {
              "name": "hardness",
              "value": "0"
            }
          ]
        },
        {
          "costume": "rock2",
          "x": 1181.6792,
          "y": -793.25946,
          "direction": 90,
          "scaleX": 1.369639,
          "scaleY": 1.2338828,
          "attributes": [
            {
              "name": "hardness",
              "value": "0"
            }
          ]
        },
        {
          "costume": "goldFactory",
          "x": 1354,
          "y": 555,
          "attributes": [
            {
              "name": "hardness",
              "value": "0"
            },
            {
              "name": "doorName",
              "value": "door"
            },
            {
              "name": "adjustBy",
              "value": "0.0x1.0"
            }
          ]
        }
      ]
    },
    {
      "name": "glass",
      "actors": [
        {
          "costume": "info",
          "x": 720,
          "y": 764,
          "text": "In the beginning...",
          "autoPositionAlignmentX": 0.5,
          "autoPositionAlignmentY": 1,
          "attributes": [
            {
              "name": "event",
              "value": ""
            },
            {
              "name": "showInSeconds",
              "value": "0"
            },
            {
              "name": "hideAfterSeconds",
              "value": "5"
            },
            {
              "name": "duration",
              "value": "1"
            }
          ]
        }
      ]
    }
  ]
}