{
  "director": "Play",
  "directorAttributes": [
    {
      "name": "gravity",
      "value": "0.05"
    },
    {
      "name": "waterRequired",
      "value": "3"
    }
  ],
  "background": "#000000",
  "showMouse": false,
  "layout": "default",
  "snapToGrid": {
    "enabled": false,
    "xSpacing": 50,
    "ySpacing": 50,
    "xOffset": 0,
    "yOffset": 0,
    "xCloseness": 10,
    "yCloseness": 10
  },
  "snapToGuides": {
    "enabled": true,
    "closeness": 5,
    "x": [
      
    ],
    "y": [
      
    ]
  },
  "snapToOthers": {
    "enabled": true,
    "xCloseness": 10,
    "yCloseness": 10
  },
  "snapRotation": {
    "enabled": false,
    "step": 15,
    "closeness": 15
  },
  "include": [
    "info"
  ],
  "stages": [
    {
      "name": "background",
      "actors": [
        {
          "costume": "background1",
          "x": -177.5,
          "y": 877,
          "isLocked": true,
          "scaleX": 1.4166666,
          "scaleY": 1.7152406
        }
      ]
    },
    {
      "name": "dynamic",
      "actors": [
        {
          "costume": "ship1",
          "x": 462,
          "y": 452.5,
          "direction": 90
        },
        {
          "costume": "dripFactory",
          "x": 173,
          "y": 777,
          "attributes": [
            {
              "name": "fromSeconds",
              "value": "3"
            },
            {
              "name": "toSeconds",
              "value": "6"
            }
          ]
        },
        {
          "costume": "dripFactory",
          "x": 689,
          "y": 796,
          "attributes": [
            {
              "name": "fromSeconds",
              "value": "3"
            },
            {
              "name": "toSeconds",
              "value": "6"
            }
          ]
        },
        {
          "costume": "lake",
          "x": 422.5308,
          "y": -48.215027,
          "scaleX": 8.062481,
          "scaleY": 1.857513
        }
      ]
    },
    {
      "name": "rocks",
      "actors": [
        {
          "costume": "rock1",
          "x": -119,
          "y": 398.5,
          "attributes": [
            {
              "name": "hardness",
              "value": "0"
            }
          ]
        },
        {
          "costume": "rock3",
          "x": -18,
          "y": -2,
          "attributes": [
            {
              "name": "hardness",
              "value": "0"
            }
          ]
        },
        {
          "costume": "rock4",
          "x": 154.47118,
          "y": -397.08237,
          "direction": 74.0165843438658,
          "scaleX": 1.4543669,
          "scaleY": 2.0253053,
          "attributes": [
            {
              "name": "hardness",
              "value": "0"
            }
          ]
        },
        {
          "costume": "rock3",
          "x": 612.5,
          "y": -84,
          "direction": 288.434948822922,
          "attributes": [
            {
              "name": "hardness",
              "value": "0"
            }
          ]
        },
        {
          "costume": "rock2",
          "x": 787,
          "y": -15.5,
          "direction": 90,
          "attributes": [
            {
              "name": "hardness",
              "value": "0"
            }
          ]
        },
        {
          "costume": "rock1",
          "x": 1054,
          "y": -32,
          "direction": 270,
          "attributes": [
            {
              "name": "hardness",
              "value": "0"
            }
          ]
        },
        {
          "costume": "rock1",
          "x": -127,
          "y": 158,
          "attributes": [
            {
              "name": "hardness",
              "value": "0"
            }
          ]
        },
        {
          "costume": "rock2",
          "x": -66.5,
          "y": 624.5,
          "direction": 330,
          "attributes": [
            {
              "name": "hardness",
              "value": "0"
            }
          ]
        },
        {
          "costume": "rock2",
          "x": 115,
          "y": 797,
          "direction": 300,
          "attributes": [
            {
              "name": "hardness",
              "value": "0"
            }
          ]
        },
        {
          "costume": "rock3",
          "x": 345.5,
          "y": 856,
          "attributes": [
            {
              "name": "hardness",
              "value": "0"
            }
          ]
        },
        {
          "costume": "rock4",
          "x": 606,
          "y": 856.5,
          "attributes": [
            {
              "name": "hardness",
              "value": "0"
            }
          ]
        },
        {
          "costume": "rock2",
          "x": 856,
          "y": 778.5,
          "direction": 45,
          "attributes": [
            {
              "name": "hardness",
              "value": "0"
            }
          ]
        },
        {
          "costume": "rock4",
          "x": 1022,
          "y": 573.5,
          "direction": 300,
          "attributes": [
            {
              "name": "hardness",
              "value": "0"
            }
          ]
        },
        {
          "costume": "rock2",
          "x": 1074,
          "y": 322.5,
          "attributes": [
            {
              "name": "hardness",
              "value": "0"
            }
          ]
        },
        {
          "costume": "rock4",
          "x": 1138,
          "y": 108.5,
          "direction": 285,
          "attributes": [
            {
              "name": "hardness",
              "value": "0"
            }
          ]
        },
        {
          "costume": "topRight",
          "x": 1238,
          "y": 953.5
        },
        {
          "costume": "bottomLeft",
          "x": -181,
          "y": -445.5
        },
        {
          "costume": "exitGate",
          "x": 1018,
          "y": 76.5,
          "attributes": [
            {
              "name": "nextScene",
              "value": "tutorial/6"
            }
          ]
        },
        {
          "costume": "rock2",
          "x": 654,
          "y": 106.5,
          "direction": 338.44292071496227,
          "attributes": [
            {
              "name": "hardness",
              "value": "0"
            }
          ]
        },
        {
          "costume": "rock2",
          "x": 721,
          "y": 101,
          "direction": 10.251198750817434,
          "attributes": [
            {
              "name": "hardness",
              "value": "0"
            }
          ]
        },
        {
          "costume": "rock1",
          "x": 7.9723873,
          "y": -114.93293,
          "direction": 270.52806437692084,
          "scaleX": 1.9257712,
          "scaleY": 1.8841811,
          "attributes": [
            {
              "name": "hardness",
              "value": "0"
            }
          ]
        },
        {
          "costume": "rock3",
          "x": 658.37964,
          "y": -350.99667,
          "direction": 271.63020255386914,
          "scaleX": 1.6774691,
          "scaleY": 1.5529802,
          "attributes": [
            {
              "name": "hardness",
              "value": "0"
            }
          ]
        },
        {
          "costume": "rock1",
          "x": 844.0499,
          "y": -133.46317,
          "direction": 89.40669803338498,
          "scaleX": 1.6278921,
          "scaleY": 1.5310826,
          "attributes": [
            {
              "name": "hardness",
              "value": "0"
            }
          ]
        },
        {
          "costume": "rock2",
          "x": 1140.4321,
          "y": -149.30348,
          "direction": 270.3037276099519,
          "scaleX": 1.8910627,
          "scaleY": 1.6491137,
          "attributes": [
            {
              "name": "hardness",
              "value": "0"
            }
          ]
        },
        {
          "costume": "rock2",
          "x": 1244.7705,
          "y": 109.16279,
          "scaleX": 1.6836075,
          "scaleY": 1.4202658,
          "attributes": [
            {
              "name": "hardness",
              "value": "0"
            }
          ]
        },
        {
          "costume": "rock2",
          "x": 1187.4318,
          "y": 423.02325,
          "scaleX": 1.6590909,
          "scaleY": 1.2641196,
          "attributes": [
            {
              "name": "hardness",
              "value": "0"
            }
          ]
        },
        {
          "costume": "rock2",
          "x": 1296,
          "y": 419,
          "attributes": [
            {
              "name": "hardness",
              "value": "0"
            }
          ]
        },
        {
          "costume": "rock2",
          "x": 1263.3525,
          "y": 683.3721,
          "scaleX": 1.5580333,
          "scaleY": 1.2259136,
          "attributes": [
            {
              "name": "hardness",
              "value": "0"
            }
          ]
        },
        {
          "costume": "rock1",
          "x": 1128.1145,
          "y": 710.69696,
          "scaleX": 1.3546255,
          "scaleY": 1.1784512,
          "attributes": [
            {
              "name": "hardness",
              "value": "0"
            }
          ]
        },
        {
          "costume": "rock2",
          "x": 1141.6091,
          "y": 928.9368,
          "direction": 88.99491399474583,
          "scaleX": 1.5972997,
          "scaleY": 1.3609791,
          "attributes": [
            {
              "name": "hardness",
              "value": "0"
            }
          ]
        },
        {
          "costume": "rock2",
          "x": 1025.4214,
          "y": 821.1628,
          "scaleX": 1.2989523,
          "scaleY": 1.1345515,
          "attributes": [
            {
              "name": "hardness",
              "value": "0"
            }
          ]
        },
        {
          "costume": "rock2",
          "x": 832.7355,
          "y": 945.6304,
          "direction": 86.13022449004947,
          "scaleX": 1.4479424,
          "scaleY": 1.192292,
          "attributes": [
            {
              "name": "hardness",
              "value": "0"
            }
          ]
        },
        {
          "costume": "rock3",
          "x": 885.8197,
          "y": 827.7647,
          "direction": 331.60698057861697,
          "scaleX": 1.1061969,
          "scaleY": 1.0197724,
          "attributes": [
            {
              "name": "hardness",
              "value": "0"
            }
          ]
        },
        {
          "costume": "rock3",
          "x": 624.5,
          "y": 958.5,
          "attributes": [
            {
              "name": "hardness",
              "value": "0"
            }
          ]
        },
        {
          "costume": "rock4",
          "x": 399,
          "y": 937.5,
          "attributes": [
            {
              "name": "hardness",
              "value": "0"
            }
          ]
        },
        {
          "costume": "rock4",
          "x": 170,
          "y": 935,
          "attributes": [
            {
              "name": "hardness",
              "value": "0"
            }
          ]
        },
        {
          "costume": "rock4",
          "x": 25.5,
          "y": 876.5,
          "attributes": [
            {
              "name": "hardness",
              "value": "0"
            }
          ]
        },
        {
          "costume": "rock1",
          "x": -227.81654,
          "y": 65.90909,
          "scaleX": 1.3776978,
          "scaleY": 1.1868687,
          "attributes": [
            {
              "name": "hardness",
              "value": "0"
            }
          ]
        },
        {
          "costume": "rock4",
          "x": -212.5,
          "y": -150.5,
          "attributes": [
            {
              "name": "hardness",
              "value": "0"
            }
          ]
        },
        {
          "costume": "rock2",
          "x": -285.5,
          "y": -41.5,
          "attributes": [
            {
              "name": "hardness",
              "value": "0"
            }
          ]
        },
        {
          "costume": "rock1",
          "x": -232.34172,
          "y": 260.72726,
          "scaleX": 1.561151,
          "scaleY": 1.3383838,
          "attributes": [
            {
              "name": "hardness",
              "value": "0"
            }
          ]
        },
        {
          "costume": "rock2",
          "x": -206.72728,
          "y": 627.6279,
          "scaleX": 1.530303,
          "scaleY": 1.2740864,
          "attributes": [
            {
              "name": "hardness",
              "value": "0"
            }
          ]
        },
        {
          "costume": "rock2",
          "x": -82.204544,
          "y": 776.32556,
          "scaleX": 1.4772727,
          "scaleY": 1.1976744,
          "attributes": [
            {
              "name": "hardness",
              "value": "0"
            }
          ]
        },
        {
          "costume": "rock3",
          "x": -89.5,
          "y": 943.5,
          "attributes": [
            {
              "name": "hardness",
              "value": "0"
            }
          ]
        },
        {
          "costume": "rock2",
          "x": -228,
          "y": 867.5,
          "attributes": [
            {
              "name": "hardness",
              "value": "0"
            }
          ]
        },
        {
          "costume": "rock2",
          "x": -147.5,
          "y": 798.5,
          "attributes": [
            {
              "name": "hardness",
              "value": "0"
            }
          ]
        },
        {
          "costume": "gate",
          "x": 52.5,
          "y": 112.5
        },
        {
          "costume": "rock1",
          "x": 430.19107,
          "y": -464.9773,
          "direction": 85.25821024548094,
          "scaleX": 1.6901863,
          "scaleY": 1.5217975,
          "attributes": [
            {
              "name": "hardness",
              "value": "0"
            }
          ]
        },
        {
          "costume": "rock1",
          "x": -33.30957,
          "y": -265.4724,
          "direction": 89.77263698900946,
          "scaleX": 1.6870284,
          "scaleY": 1.4185168,
          "attributes": [
            {
              "name": "hardness",
              "value": "0"
            }
          ]
        },
        {
          "costume": "rock2",
          "x": -55.73694,
          "y": -421.91202,
          "direction": 274.0219901770201,
          "scaleX": 2.005861,
          "scaleY": 1.4730394,
          "attributes": [
            {
              "name": "hardness",
              "value": "0"
            }
          ]
        },
        {
          "costume": "rock1",
          "x": 938.0021,
          "y": -281.54175,
          "direction": 88.40885972880542,
          "scaleX": 1.9118214,
          "scaleY": 1.661952,
          "attributes": [
            {
              "name": "hardness",
              "value": "0"
            }
          ]
        },
        {
          "costume": "rock3",
          "x": 936.39813,
          "y": -429.64703,
          "scaleX": 1.6373457,
          "scaleY": 1.7453289,
          "attributes": [
            {
              "name": "hardness",
              "value": "0"
            }
          ]
        },
        {
          "costume": "waterFactory",
          "x": 685,
          "y": 253,
          "attributes": [
            {
              "name": "doorName",
              "value": "door"
            },
            {
              "name": "adjustBy",
              "value": "0.0x1.0"
            }
          ]
        }
      ]
    },
    {
      "name": "glass",
      "actors": [
        {
          "costume": "info",
          "x": 725,
          "y": 627.5,
          "text": "Grab an empty sphere,\nand dip it in the pool,\nbefore sending it through the gate",
          "attributes": [
            {
              "name": "event",
              "value": ""
            },
            {
              "name": "showInSeconds",
              "value": "1"
            },
            {
              "name": "duration",
              "value": "2"
            },
            {
              "name": "hideAfterSeconds",
              "value": "5"
            }
          ]
        },
        {
          "costume": "info",
          "x": 724,
          "y": 91,
          "text": "The Exit Gate is now open",
          "attributes": [
            {
              "name": "event",
              "value": "gatesOpen"
            },
            {
              "name": "showInSeconds",
              "value": "-1"
            },
            {
              "name": "hideAfterSeconds",
              "value": "5"
            },
            {
              "name": "duration",
              "value": "1"
            }
          ]
        }
      ]
    }
  ]
}