{
  "director": "Menu",
  "background": "#000000",
  "showMouse": true,
  "layout": "default",
  "snapToGrid": {
    "enabled": false,
    "xSpacing": 50,
    "ySpacing": 50,
    "xOffset": 0,
    "yOffset": 0,
    "xCloseness": 10,
    "yCloseness": 10
  },
  "snapToGuides": {
    "enabled": true,
    "closeness": 5,
    "x": [
      
    ],
    "y": [
      
    ]
  },
  "snapToOthers": {
    "enabled": true,
    "xCloseness": 10,
    "yCloseness": 10
  },
  "snapRotation": {
    "enabled": true,
    "step": 15,
    "closeness": 15
  },
  "include": [
    
  ],
  "stages": [
    {
      "name": "glass",
      "actors": [
        {
          "costume": "background1",
          "x": -200,
          "y": 1200,
          "isLocked": true,
          "scaleX": 2,
          "scaleY": 2
        },
        {
          "costume": "sceneButton",
          "x": 720,
          "y": 80,
          "text": "Back to the menu",
          "textVAlignment": "BASELINE",
          "autoPositionAlignmentX": 0.5,
          "attributes": [
            {
              "name": "scene",
              "value": "mainMenu"
            },
            {
              "name": "showInSeconds",
              "value": "0"
            },
            {
              "name": "duration",
              "value": "0"
            }
          ]
        },
        {
          "costume": "largeInfo",
          "x": 726,
          "y": 644,
          "text": "Well Done!",
          "textOutlineColor": "#00000000",
          "autoPositionAlignmentX": 0.5,
          "scaleX": 2,
          "scaleY": 2,
          "attributes": [
            {
              "name": "event",
              "value": ""
            },
            {
              "name": "showInSeconds",
              "value": "0"
            },
            {
              "name": "hideAfterSeconds",
              "value": "0"
            },
            {
              "name": "duration",
              "value": "1"
            }
          ]
        },
        {
          "costume": "info",
          "x": 720,
          "y": 450,
          "text": "You completed the tutorial.\nIf you found it easy,\nwhy not try the harder options.",
          "textVAlignment": "CENTER",
          "autoPositionAlignmentX": 0.5,
          "attributes": [
            {
              "name": "event",
              "value": ""
            },
            {
              "name": "showInSeconds",
              "value": "0"
            },
            {
              "name": "hideAfterSeconds",
              "value": "0"
            },
            {
              "name": "duration",
              "value": "1"
            }
          ]
        },
        {
          "costume": "sceneButton",
          "x": 720,
          "y": 193,
          "text": "Options",
          "textColor": "#8099ffff",
          "autoPositionAlignmentX": 0.5,
          "attributes": [
            {
              "name": "showInSeconds",
              "value": "0"
            },
            {
              "name": "duration",
              "value": "0"
            },
            {
              "name": "scene",
              "value": "options"
            }
          ]
        }
      ]
    }
  ]
}