{
  "director": "Play",
  "directorAttributes": [
    {
      "name": "gravity",
      "value": "0.05"
    },
    {
      "name": "waterRequired",
      "value": "0"
    }
  ],
  "background": "#000000",
  "showMouse": false,
  "layout": "default",
  "snapToGrid": {
    "enabled": false,
    "xSpacing": 50,
    "ySpacing": 50,
    "xOffset": 0,
    "yOffset": 0,
    "xCloseness": 10,
    "yCloseness": 10
  },
  "snapToGuides": {
    "enabled": true,
    "closeness": 5,
    "x": [
      
    ],
    "y": [
      
    ]
  },
  "snapToOthers": {
    "enabled": true,
    "xCloseness": 10,
    "yCloseness": 10
  },
  "snapRotation": {
    "enabled": true,
    "step": 15,
    "closeness": 15
  },
  "include": [
    "info"
  ],
  "stages": [
    {
      "name": "background",
      "actors": [
        {
          "costume": "background1",
          "x": -562.4801,
          "y": 8.074368,
          "scaleX": 2.6405659,
          "scaleY": 2.4913106
        },
        {
          "costume": "stars",
          "x": 564.9625,
          "y": -218.7361,
          "isLocked": true,
          "scaleX": 2.4166682,
          "scaleY": 1.7633001
        }
      ]
    },
    {
      "name": "dynamic",
      "actors": [
        {
          "costume": "ship1",
          "x": 333.356,
          "y": 44.732,
          "direction": 90
        },
        {
          "costume": "dome",
          "x": 105.93041,
          "y": -11.736,
          "isLocked": true,
          "scaleX": 2.8115394,
          "scaleY": 3.476971,
          "attributes": [
            {
              "name": "rainPeriod",
              "value": "3"
            }
          ]
        },
        {
          "costume": "dripFactory",
          "x": 1214.208,
          "y": -723.312,
          "attributes": [
            {
              "name": "fromSeconds",
              "value": "3"
            },
            {
              "name": "toSeconds",
              "value": "6"
            }
          ]
        },
        {
          "costume": "dripFactory",
          "x": 1382.008,
          "y": -1360.584,
          "attributes": [
            {
              "name": "fromSeconds",
              "value": "3"
            },
            {
              "name": "toSeconds",
              "value": "6"
            }
          ]
        },
        {
          "costume": "dripFactory",
          "x": 572.256,
          "y": -1142.352,
          "attributes": [
            {
              "name": "fromSeconds",
              "value": "3"
            },
            {
              "name": "toSeconds",
              "value": "6"
            }
          ]
        },
        {
          "costume": "dripFactory",
          "x": 1258.272,
          "y": -163.44,
          "attributes": [
            {
              "name": "fromSeconds",
              "value": "3"
            },
            {
              "name": "toSeconds",
              "value": "6"
            }
          ]
        },
        {
          "costume": "dripFactory",
          "x": 1565.644,
          "y": -121.68,
          "attributes": [
            {
              "name": "fromSeconds",
              "value": "3"
            },
            {
              "name": "toSeconds",
              "value": "6"
            }
          ]
        },
        {
          "costume": "dripFactory",
          "x": 212.444,
          "y": -1353.68,
          "attributes": [
            {
              "name": "fromSeconds",
              "value": "3"
            },
            {
              "name": "toSeconds",
              "value": "6"
            }
          ]
        }
      ]
    },
    {
      "name": "rocks",
      "actors": [
        {
          "costume": "rock3",
          "x": 627.552,
          "y": -30.384,
          "attributes": [
            {
              "name": "hardness",
              "value": "0"
            }
          ]
        },
        {
          "costume": "rock4",
          "x": 791.712,
          "y": -105.552,
          "attributes": [
            {
              "name": "hardness",
              "value": "0"
            }
          ]
        },
        {
          "costume": "rock3",
          "x": 804.448,
          "y": -509.14,
          "direction": 180,
          "attributes": [
            {
              "name": "hardness",
              "value": "0"
            }
          ]
        },
        {
          "costume": "rock2",
          "x": 859.104,
          "y": 62.928,
          "attributes": [
            {
              "name": "hardness",
              "value": "0"
            }
          ]
        },
        {
          "costume": "rock1",
          "x": 754.372,
          "y": 32.5,
          "direction": 315,
          "attributes": [
            {
              "name": "hardness",
              "value": "0"
            }
          ]
        },
        {
          "costume": "rock1",
          "x": 986.728,
          "y": -154.256,
          "direction": 300,
          "attributes": [
            {
              "name": "hardness",
              "value": "0"
            }
          ]
        },
        {
          "costume": "rock3",
          "x": 1245.524,
          "y": -80.74,
          "attributes": [
            {
              "name": "hardness",
              "value": "0"
            }
          ]
        },
        {
          "costume": "rock4",
          "x": 1618.408,
          "y": -61.564,
          "direction": 345,
          "attributes": [
            {
              "name": "hardness",
              "value": "0"
            }
          ]
        },
        {
          "costume": "rock3",
          "x": 1925.2537,
          "y": -1013.4955,
          "direction": 90,
          "scaleX": 1.3608996,
          "scaleY": 1.5409687,
          "attributes": [
            {
              "name": "hardness",
              "value": "0"
            }
          ]
        },
        {
          "costume": "rock4",
          "x": 944.96,
          "y": -349.156,
          "direction": 105.00000000000001,
          "attributes": [
            {
              "name": "hardness",
              "value": "0"
            }
          ]
        },
        {
          "costume": "rock2",
          "x": 1942.5044,
          "y": -339.9011,
          "direction": 180,
          "scaleX": 1.8324221,
          "scaleY": 1.6524779,
          "attributes": [
            {
              "name": "hardness",
              "value": "0"
            }
          ]
        },
        {
          "costume": "rock2",
          "x": 1777.408,
          "y": -194.096,
          "attributes": [
            {
              "name": "hardness",
              "value": "0"
            }
          ]
        },
        {
          "costume": "rock4",
          "x": 1470.792,
          "y": -61.62,
          "attributes": [
            {
              "name": "hardness",
              "value": "0"
            }
          ]
        },
        {
          "costume": "rock3",
          "x": 1862.4313,
          "y": -76.724625,
          "direction": 345,
          "scaleX": 1.167177,
          "scaleY": 1.1777574,
          "attributes": [
            {
              "name": "hardness",
              "value": "0"
            }
          ]
        },
        {
          "costume": "rock1",
          "x": 1873.5,
          "y": -236.412,
          "direction": 14.999999999999998,
          "attributes": [
            {
              "name": "hardness",
              "value": "0"
            }
          ]
        },
        {
          "costume": "gate",
          "x": 646.372,
          "y": 84.452
        },
        {
          "costume": "goldFactory",
          "x": 1125.304,
          "y": -523.876,
          "attributes": [
            {
              "name": "doorName",
              "value": "door"
            },
            {
              "name": "adjustBy",
              "value": "0.0x1.0"
            },
            {
              "name": "hardness",
              "value": "0"
            }
          ]
        },
        {
          "costume": "rock4",
          "x": -319.284,
          "y": -6.596,
          "attributes": [
            {
              "name": "hardness",
              "value": "0"
            }
          ]
        },
        {
          "costume": "rock3",
          "x": -532.984,
          "y": 5.088,
          "attributes": [
            {
              "name": "hardness",
              "value": "0"
            }
          ]
        },
        {
          "costume": "rock1",
          "x": -499.204,
          "y": -157.588,
          "attributes": [
            {
              "name": "hardness",
              "value": "0"
            }
          ]
        },
        {
          "costume": "rock1",
          "x": -517.984,
          "y": -367.416,
          "attributes": [
            {
              "name": "hardness",
              "value": "0"
            }
          ]
        },
        {
          "costume": "rock2",
          "x": -519.616,
          "y": -567.608,
          "attributes": [
            {
              "name": "hardness",
              "value": "0"
            }
          ]
        },
        {
          "costume": "rock2",
          "x": -543.3,
          "y": -794.976,
          "attributes": [
            {
              "name": "hardness",
              "value": "0"
            }
          ]
        },
        {
          "costume": "rock2",
          "x": 1962.6731,
          "y": -689.87244,
          "scaleX": 1.4454546,
          "scaleY": 1.3098111,
          "attributes": [
            {
              "name": "hardness",
              "value": "0"
            }
          ]
        },
        {
          "costume": "rock1",
          "x": 1769.3313,
          "y": -377.8706,
          "scaleX": 1.2351079,
          "scaleY": 1.1088986,
          "attributes": [
            {
              "name": "hardness",
              "value": "0"
            }
          ]
        },
        {
          "costume": "rock2",
          "x": 1880.1914,
          "y": -490.73746,
          "scaleX": 1.4452727,
          "scaleY": 1.2355188,
          "attributes": [
            {
              "name": "hardness",
              "value": "0"
            }
          ]
        },
        {
          "costume": "rock2",
          "x": 1734.2812,
          "y": -607.52313,
          "direction": 345,
          "scaleX": 1.1412505,
          "scaleY": 1.0572214,
          "attributes": [
            {
              "name": "hardness",
              "value": "0"
            }
          ]
        },
        {
          "costume": "rock2",
          "x": 1814.1967,
          "y": -760.23413,
          "direction": 345,
          "scaleX": 1.4771439,
          "scaleY": 1.2578899,
          "attributes": [
            {
              "name": "hardness",
              "value": "0"
            }
          ]
        },
        {
          "costume": "rock1",
          "x": -193.248,
          "y": -531.504,
          "attributes": [
            {
              "name": "hardness",
              "value": "0"
            }
          ]
        },
        {
          "costume": "rock1",
          "x": -210.528,
          "y": -776.016,
          "attributes": [
            {
              "name": "hardness",
              "value": "0"
            }
          ]
        },
        {
          "costume": "rock2",
          "x": -599.19653,
          "y": -186.84721,
          "scaleX": 1.5892727,
          "scaleY": 1.2820919,
          "attributes": [
            {
              "name": "hardness",
              "value": "0"
            }
          ]
        },
        {
          "costume": "rock1",
          "x": -635.7587,
          "y": -528.6935,
          "scaleX": 1.6204892,
          "scaleY": 1.3095174,
          "attributes": [
            {
              "name": "hardness",
              "value": "0"
            }
          ]
        },
        {
          "costume": "rock1",
          "x": -658.5335,
          "y": -850.8608,
          "scaleX": 1.5396835,
          "scaleY": 1.5382446,
          "attributes": [
            {
              "name": "hardness",
              "value": "0"
            }
          ]
        },
        {
          "costume": "rock1",
          "x": -102.16846,
          "y": -799.1097,
          "direction": 180,
          "scaleX": 1.3656403,
          "scaleY": 1.216044,
          "attributes": [
            {
              "name": "hardness",
              "value": "0"
            }
          ]
        },
        {
          "costume": "rock1",
          "x": -79.53764,
          "y": -543.9215,
          "scaleX": 1.4650935,
          "scaleY": 1.2044063,
          "attributes": [
            {
              "name": "hardness",
              "value": "0"
            }
          ]
        },
        {
          "costume": "exitGate",
          "x": -393.696,
          "y": 100.944,
          "attributes": [
            {
              "name": "nextScene",
              "value": "chapter2/2"
            }
          ]
        },
        {
          "costume": "topRight",
          "x": 1884.084,
          "y": 854.02
        },
        {
          "costume": "bottomLeft",
          "x": -661.372,
          "y": -1887.052
        },
        {
          "costume": "rock3",
          "x": 1106.392,
          "y": -609.268,
          "attributes": [
            {
              "name": "hardness",
              "value": "0"
            }
          ]
        },
        {
          "costume": "magnet",
          "x": 876.408,
          "y": -422.036
        },
        {
          "costume": "rock4",
          "x": 1296.724,
          "y": -587.852,
          "direction": 45,
          "attributes": [
            {
              "name": "hardness",
              "value": "0"
            }
          ]
        },
        {
          "costume": "rock3",
          "x": 951.028,
          "y": -616.36,
          "direction": 75,
          "attributes": [
            {
              "name": "hardness",
              "value": "0"
            }
          ]
        },
        {
          "costume": "rock2",
          "x": 1086.1166,
          "y": 16.714907,
          "direction": 105.00000000000001,
          "scaleX": 1.5507497,
          "scaleY": 1.465238,
          "attributes": [
            {
              "name": "hardness",
              "value": "0"
            }
          ]
        },
        {
          "costume": "rock2",
          "x": 1442.0873,
          "y": 61.361637,
          "direction": 90,
          "scaleX": 1.6948485,
          "scaleY": 1.4019921,
          "attributes": [
            {
              "name": "hardness",
              "value": "0"
            }
          ]
        },
        {
          "costume": "rock1",
          "x": 1827.8596,
          "y": 28.477814,
          "direction": 270,
          "scaleX": 1.7052087,
          "scaleY": 1.5289696,
          "attributes": [
            {
              "name": "hardness",
              "value": "0"
            }
          ]
        },
        {
          "costume": "button",
          "x": 1723.968,
          "y": -159.12,
          "attributes": [
            {
              "name": "doorName",
              "value": "door1"
            }
          ]
        },
        {
          "costume": "button",
          "x": 1706.688,
          "y": -782.928,
          "attributes": [
            {
              "name": "doorName",
              "value": "door1"
            }
          ]
        },
        {
          "costume": "door3",
          "x": 1690.272,
          "y": -509.904,
          "direction": 180,
          "attributes": [
            {
              "name": "doorName",
              "value": "door1"
            },
            {
              "name": "linear",
              "value": "200"
            },
            {
              "name": "degrees",
              "value": "0"
            },
            {
              "name": "duration",
              "value": "1"
            },
            {
              "name": "closeAfterSeconds",
              "value": "5"
            }
          ]
        },
        {
          "costume": "rock2",
          "x": 973.084,
          "y": -854.732,
          "direction": 14.999999999999998,
          "attributes": [
            {
              "name": "hardness",
              "value": "0"
            }
          ]
        },
        {
          "costume": "rock2",
          "x": 1109.24,
          "y": -1079.712,
          "direction": 225,
          "attributes": [
            {
              "name": "hardness",
              "value": "0"
            }
          ]
        },
        {
          "costume": "rock1",
          "x": 1299.736,
          "y": -1241.772,
          "direction": 239.99999999999997,
          "attributes": [
            {
              "name": "hardness",
              "value": "0"
            }
          ]
        },
        {
          "costume": "goldFactory",
          "x": 1163.78,
          "y": -689.572,
          "attributes": [
            {
              "name": "doorName",
              "value": "door"
            },
            {
              "name": "adjustBy",
              "value": "0.0x1.0"
            },
            {
              "name": "hardness",
              "value": "0"
            }
          ]
        },
        {
          "costume": "rock2",
          "x": 1824.3955,
          "y": -1027.2847,
          "scaleX": 1.4452727,
          "scaleY": 1.1477722,
          "attributes": [
            {
              "name": "hardness",
              "value": "0"
            }
          ]
        },
        {
          "costume": "rock1",
          "x": 1823.328,
          "y": -1296.144,
          "attributes": [
            {
              "name": "hardness",
              "value": "0"
            }
          ]
        },
        {
          "costume": "rock1",
          "x": 1753.94,
          "y": -1525.74,
          "direction": 330,
          "attributes": [
            {
              "name": "hardness",
              "value": "0"
            }
          ]
        },
        {
          "costume": "rock2",
          "x": 1604.736,
          "y": -1679.76,
          "direction": 300,
          "attributes": [
            {
              "name": "hardness",
              "value": "0"
            }
          ]
        },
        {
          "costume": "rock1",
          "x": 1352.212,
          "y": -1762.16,
          "direction": 285,
          "attributes": [
            {
              "name": "hardness",
              "value": "0"
            }
          ]
        },
        {
          "costume": "rock2",
          "x": 1123.888,
          "y": -1748.14,
          "direction": 255.00000000000003,
          "attributes": [
            {
              "name": "hardness",
              "value": "0"
            }
          ]
        },
        {
          "costume": "rock2",
          "x": 963.696,
          "y": -1612.868,
          "direction": 29.999999999999996,
          "attributes": [
            {
              "name": "hardness",
              "value": "0"
            }
          ]
        },
        {
          "costume": "rock2",
          "x": 876.664,
          "y": -1388.352,
          "direction": 14.999999999999998,
          "attributes": [
            {
              "name": "hardness",
              "value": "0"
            }
          ]
        },
        {
          "costume": "rock2",
          "x": 761.712,
          "y": -1209.416,
          "direction": 45,
          "attributes": [
            {
              "name": "hardness",
              "value": "0"
            }
          ]
        },
        {
          "costume": "rock2",
          "x": 573.12,
          "y": -1013.616,
          "direction": 29.999999999999996,
          "attributes": [
            {
              "name": "hardness",
              "value": "0"
            }
          ]
        },
        {
          "costume": "rock2",
          "x": 484.092,
          "y": -820.728,
          "direction": 29.999999999999996,
          "attributes": [
            {
              "name": "hardness",
              "value": "0"
            }
          ]
        },
        {
          "costume": "rock2",
          "x": 331.2,
          "y": -633.456,
          "direction": 59.99999999999999,
          "attributes": [
            {
              "name": "hardness",
              "value": "0"
            }
          ]
        },
        {
          "costume": "rock3",
          "x": 88.416,
          "y": -556.56,
          "attributes": [
            {
              "name": "hardness",
              "value": "0"
            }
          ]
        },
        {
          "costume": "rock2",
          "x": -506.848,
          "y": -1027.264,
          "direction": 14.999999999999998,
          "attributes": [
            {
              "name": "hardness",
              "value": "0"
            }
          ]
        },
        {
          "costume": "rock2",
          "x": -389.248,
          "y": -1260.252,
          "direction": 29.999999999999996,
          "attributes": [
            {
              "name": "hardness",
              "value": "0"
            }
          ]
        },
        {
          "costume": "rock2",
          "x": -20.616,
          "y": -1034.684,
          "direction": 29.999999999999996,
          "attributes": [
            {
              "name": "hardness",
              "value": "0"
            }
          ]
        },
        {
          "costume": "rock2",
          "x": 141.136,
          "y": -1227.488,
          "direction": 45,
          "attributes": [
            {
              "name": "hardness",
              "value": "0"
            }
          ]
        },
        {
          "costume": "goldFactory",
          "x": 165.992,
          "y": -637.816,
          "attributes": [
            {
              "name": "doorName",
              "value": "door"
            },
            {
              "name": "adjustBy",
              "value": "0.0x1.0"
            },
            {
              "name": "hardness",
              "value": "0"
            }
          ]
        },
        {
          "costume": "rock2",
          "x": 887.776,
          "y": -1753,
          "direction": 300,
          "attributes": [
            {
              "name": "hardness",
              "value": "0"
            }
          ]
        },
        {
          "costume": "rock3",
          "x": 649.152,
          "y": -1831.824,
          "attributes": [
            {
              "name": "hardness",
              "value": "0"
            }
          ]
        },
        {
          "costume": "rock1",
          "x": 431.516,
          "y": -1843.276,
          "direction": 300,
          "attributes": [
            {
              "name": "hardness",
              "value": "0"
            }
          ]
        },
        {
          "costume": "rock2",
          "x": 171.568,
          "y": -1892.524,
          "direction": 270,
          "attributes": [
            {
              "name": "hardness",
              "value": "0"
            }
          ]
        },
        {
          "costume": "rock4",
          "x": -103.392,
          "y": -1810.224,
          "direction": 330,
          "attributes": [
            {
              "name": "hardness",
              "value": "0"
            }
          ]
        },
        {
          "costume": "rock3",
          "x": -233.372,
          "y": -1608.656,
          "direction": 300,
          "attributes": [
            {
              "name": "hardness",
              "value": "0"
            }
          ]
        },
        {
          "costume": "rock3",
          "x": -324.756,
          "y": -1437.008,
          "direction": 285,
          "attributes": [
            {
              "name": "hardness",
              "value": "0"
            }
          ]
        },
        {
          "costume": "rock2",
          "x": 1949.5151,
          "y": -1351.0137,
          "scaleX": 1.6874546,
          "scaleY": 1.3315173,
          "attributes": [
            {
              "name": "hardness",
              "value": "0"
            }
          ]
        },
        {
          "costume": "rock1",
          "x": 1903.8854,
          "y": -1662.2048,
          "scaleX": 1.6764317,
          "scaleY": 1.2079109,
          "attributes": [
            {
              "name": "hardness",
              "value": "0"
            }
          ]
        },
        {
          "costume": "rock4",
          "x": 1785.868,
          "y": -1643.808,
          "direction": 75,
          "attributes": [
            {
              "name": "hardness",
              "value": "0"
            }
          ]
        },
        {
          "costume": "rock2",
          "x": 1646.5969,
          "y": -1778.9547,
          "direction": 315,
          "scaleX": 1.6263993,
          "scaleY": 1.131804,
          "attributes": [
            {
              "name": "hardness",
              "value": "0"
            }
          ]
        },
        {
          "costume": "rock4",
          "x": 1765.0404,
          "y": -1863.624,
          "scaleX": 1.4318998,
          "scaleY": 1.494909,
          "attributes": [
            {
              "name": "hardness",
              "value": "0"
            }
          ]
        },
        {
          "costume": "rock3",
          "x": 1449.5284,
          "y": -1857.0923,
          "scaleX": 1.1877037,
          "scaleY": 1.2536901,
          "attributes": [
            {
              "name": "hardness",
              "value": "0"
            }
          ]
        },
        {
          "costume": "rock2",
          "x": 1097.0156,
          "y": -1838.5017,
          "direction": 270,
          "scaleX": 1.4483968,
          "scaleY": 1.429414,
          "attributes": [
            {
              "name": "hardness",
              "value": "0"
            }
          ]
        },
        {
          "costume": "rock2",
          "x": 775.7629,
          "y": -1881.2391,
          "direction": 270,
          "scaleX": 1.1834545,
          "scaleY": 1.087198,
          "attributes": [
            {
              "name": "hardness",
              "value": "0"
            }
          ]
        },
        {
          "costume": "rock3",
          "x": 507.144,
          "y": -1909.68,
          "attributes": [
            {
              "name": "hardness",
              "value": "0"
            }
          ]
        },
        {
          "costume": "rock4",
          "x": 306.144,
          "y": -1959.48,
          "attributes": [
            {
              "name": "hardness",
              "value": "0"
            }
          ]
        },
        {
          "costume": "rock4",
          "x": 42.144,
          "y": -1966.68,
          "attributes": [
            {
              "name": "hardness",
              "value": "0"
            }
          ]
        },
        {
          "costume": "rock2",
          "x": -198.87872,
          "y": -1891.794,
          "scaleX": 1.1863636,
          "scaleY": 1.0315908,
          "attributes": [
            {
              "name": "hardness",
              "value": "0"
            }
          ]
        },
        {
          "costume": "rock4",
          "x": -145.3007,
          "y": -1928.0245,
          "scaleX": 1.090739,
          "scaleY": 1.212961,
          "attributes": [
            {
              "name": "hardness",
              "value": "0"
            }
          ]
        },
        {
          "costume": "rock2",
          "x": -272.78217,
          "y": -1786.6046,
          "scaleX": 1.3769842,
          "scaleY": 1.0923934,
          "attributes": [
            {
              "name": "hardness",
              "value": "0"
            }
          ]
        },
        {
          "costume": "rock2",
          "x": -373.61508,
          "y": -1581.5867,
          "scaleX": 1.3045454,
          "scaleY": 1.1173499,
          "attributes": [
            {
              "name": "hardness",
              "value": "0"
            }
          ]
        },
        {
          "costume": "rock1",
          "x": -476.77216,
          "y": -1355.4651,
          "direction": 14.999999999999998,
          "scaleX": 1.3761904,
          "scaleY": 1.1083925,
          "attributes": [
            {
              "name": "hardness",
              "value": "0"
            }
          ]
        },
        {
          "costume": "rock2",
          "x": -579.54364,
          "y": -1102.2701,
          "direction": 14.999999999999998,
          "scaleX": 1.3427007,
          "scaleY": 1.086193,
          "attributes": [
            {
              "name": "hardness",
              "value": "0"
            }
          ]
        },
        {
          "costume": "magnet",
          "x": 303.58176,
          "y": -1311.6461
        },
        {
          "costume": "goldFactory",
          "x": 65.9472,
          "y": -471.83807,
          "attributes": [
            {
              "name": "doorName",
              "value": "door"
            },
            {
              "name": "adjustBy",
              "value": "0.0x1.0"
            },
            {
              "name": "hardness",
              "value": "0"
            }
          ]
        },
        {
          "costume": "rock2",
          "x": -662.44324,
          "y": -1181.0769,
          "scaleX": 1.5041819,
          "scaleY": 1.297098,
          "attributes": [
            {
              "name": "hardness",
              "value": "0"
            }
          ]
        },
        {
          "costume": "rock2",
          "x": -560.90436,
          "y": -1382.0139,
          "scaleX": 1.5107273,
          "scaleY": 1.3652403,
          "attributes": [
            {
              "name": "hardness",
              "value": "0"
            }
          ]
        },
        {
          "costume": "rock4",
          "x": -441.23074,
          "y": -1942.5421,
          "scaleX": 1.3391933,
          "scaleY": 1.450054,
          "attributes": [
            {
              "name": "hardness",
              "value": "0"
            }
          ]
        },
        {
          "costume": "rock1",
          "x": -445.14667,
          "y": -1683.8256,
          "direction": 14.999999999999998,
          "scaleX": 1.3718561,
          "scaleY": 1.3669171,
          "attributes": [
            {
              "name": "hardness",
              "value": "0"
            }
          ]
        },
        {
          "costume": "rock1",
          "x": -602.0563,
          "y": -1777.2471,
          "scaleX": 2.0742445,
          "scaleY": 1.590934,
          "attributes": [
            {
              "name": "hardness",
              "value": "0"
            }
          ]
        },
        {
          "costume": "rock2",
          "x": -675.03015,
          "y": -1492.748,
          "scaleX": 1.2096363,
          "scaleY": 1.2019476,
          "attributes": [
            {
              "name": "hardness",
              "value": "0"
            }
          ]
        }
      ]
    },
    {
      "name": "glass",
      "actors": [
        {
          "costume": "info",
          "x": 720,
          "y": 770,
          "text": "The Long and Winding Road",
          "autoPositionAlignmentX": 0.5,
          "autoPositionAlignmentY": 1,
          "attributes": [
            {
              "name": "event",
              "value": ""
            },
            {
              "name": "showInSeconds",
              "value": "0"
            },
            {
              "name": "hideAfterSeconds",
              "value": "5"
            },
            {
              "name": "duration",
              "value": "1"
            }
          ]
        }
      ]
    }
  ]
}