{
  "director": "ChapterVictory",
  "background": "#000000",
  "showMouse": true,
  "layout": "default",
  "snapToGrid": {
    "enabled": false,
    "xSpacing": 50,
    "ySpacing": 50,
    "xOffset": 0,
    "yOffset": 0,
    "xCloseness": 10,
    "yCloseness": 10
  },
  "snapToGuides": {
    "enabled": true,
    "closeness": 5,
    "x": [
      
    ],
    "y": [
      
    ]
  },
  "snapToOthers": {
    "enabled": true,
    "xCloseness": 10,
    "yCloseness": 10
  },
  "snapRotation": {
    "enabled": true,
    "step": 15,
    "closeness": 15
  },
  "include": [
    
  ],
  "stages": [
    {
      "name": "glass",
      "actors": [
        {
          "costume": "background1",
          "x": -200,
          "y": 1200,
          "scaleX": 2,
          "scaleY": 2
        },
        {
          "costume": "largeInfo",
          "x": 720,
          "y": 630,
          "text": "Victory !",
          "textOutlineColor": "#00000000",
          "autoPositionAlignmentX": 0.5,
          "scaleX": 2,
          "scaleY": 2,
          "attributes": [
            {
              "name": "event",
              "value": ""
            },
            {
              "name": "showInSeconds",
              "value": "1"
            },
            {
              "name": "hideAfterSeconds",
              "value": "0"
            },
            {
              "name": "duration",
              "value": "1"
            }
          ]
        },
        {
          "costume": "info",
          "x": 720,
          "y": 400,
          "text": "My Gosh, you've done it!\nYou deserve a nice cup of tea my dear fellow.\n\nThat's it. Then End.",
          "textVAlignment": "CENTER",
          "autoPositionAlignmentX": 0.5,
          "attributes": [
            {
              "name": "event",
              "value": ""
            },
            {
              "name": "showInSeconds",
              "value": "3"
            },
            {
              "name": "hideAfterSeconds",
              "value": "0"
            },
            {
              "name": "duration",
              "value": "1"
            }
          ]
        },
        {
          "costume": "chapterButton",
          "x": 720,
          "y": 158,
          "text": "Ok, maybe not...",
          "autoPositionAlignmentX": 0.5,
          "attributes": [
            {
              "name": "chapter",
              "value": "3"
            },
            {
              "name": "showInSeconds",
              "value": "7"
            },
            {
              "name": "duration",
              "value": "1"
            }
          ]
        }
      ]
    }
  ]
}